{
    "game1" : [       
        {
            "roundNumber" : 1,
            "question" : "Как правильно припарковать Тардис?",
            "answers" : [
                {
                    "id" : 1,
                    "isOpened": false,
                    "text": "ТАРДИС сама решит",
                    "cost": 25
                },
                {
                    "id" : 2,
                    "isOpened": false,
                    "text": "выходом наружу //не в стену",
                    "cost": 15
                },
                {
                    "id" : 3,
                    "isOpened": false,
                    "text": "знает только Ривер",
                    "cost": 13
                },
                {
                    "id" : 4,
                    "isOpened": false,
                    "text": "выходом в стену",
                    "cost": 10
                },
                {
                    "id" : 5,
                    "isOpened": false,
                    "text": "*шутка про звук тормозов*",
                    "cost": 8
                },
                {
                    "id" : 6,
                    "isOpened": false,
                    "text": "никак",
                    "cost": 5
                }
            ]
        },
        {
            "roundNumber" : 2,
            "question" : "Если Доктор снится врагам в кошмарах, то что снится в кошмарах Доктору?",
            "answers" : [
                {
                    "id" : 1,
                    "isOpened": false,
                    "text": "cпокойная нормальная жизнь",
                    "cost": 25
                },
                {
                    "id" : 2,
                    "isOpened": false,
                    "text": "спутницы",
                    "cost": 20
                },
                {
                    "id" : 3,
                    "isOpened": false,
                    "text": "враги",
                    "cost": 15
                },
                {
                    "id" : 4,
                    "isOpened": false,
                    "text": "война / смерти",
                    "cost": 13
                },
                {
                    "id" : 5,
                    "isOpened": false,
                    "text": "он сам",
                    "cost": 10
                },
                {
                    "id" : 6,
                    "isOpened": false,
                    "text": "ничего / нет времени спать",
                    "cost": 5
                }
            ]
        },
        {
            "roundNumber" : 3,
            "question" : "Самое долгое путешествие Доктора?",
            "answers" : [
                {
                    "id" : 1,
                    "isOpened": false,
                    "text": "Хевен Сент",
                    "cost": 25
                },
                {
                    "id" : 2,
                    "isOpened": false,
                    "text": "по личным делам",
                    "cost": 17
                },
                {
                    "id" : 3,
                    "isOpened": false,
                    "text": "от Галлифрея до Трензалора",
                    "cost": 13
                },
                {
                    "id" : 4,
                    "isOpened": false,
                    "text": "до сих пор продолжается",
                    "cost": 8
                },
                {
                    "id" : 5,
                    "isOpened": false,
                    "text": "когда спутница ждёт",
                    "cost": 5
                },
                {
                    "id" : 6,
                    "isOpened": false,
                    "text": "60 лет сериалу",
                    "cost": 3
                }
            ]
        },
        {
            "roundNumber" : 4,
            "question" : "Как завести железную собаку?",
            "answers" : [
                {
                    "id" : 1,
                    "isOpened": false,
                    "text": "ключом зажигания под хвост",
                    "cost": 15
                },
                {
                    "id" : 2,
                    "isOpened": false,
                    "text": "неприличные варианты",
                    "cost": 30
                },
                {
                    "id" : 3,
                    "isOpened": false,
                    "text": "сделать // купить",
                    "cost": 60
                },
                {
                    "id" : 4,
                    "isOpened": false,
                    "text": "у заводчика // приманить косточкой // пр. собачье",
                    "cost": 120
                },
                {
                    "id" : 5,
                    "isOpened": false,
                    "text": "угнать",
                    "cost": 180
                },
                {
                    "id" : 6,
                    "isOpened": false,
                    "text": "сама выберет хозяина",
                    "cost": 240
                }
            ]
        },
        {
            "roundNumber" : 5,
            "question" : "Как завести железную собаку?",
            "answers" : [
                {
                    "id" : 1,
                    "isOpened": false,
                    "text": "ключом зажигания под хвост",
                    "cost": 15
                },
                {
                    "id" : 2,
                    "isOpened": false,
                    "text": "неприличные варианты",
                    "cost": 30
                },
                {
                    "id" : 3,
                    "isOpened": false,
                    "text": "сделать // купить",
                    "cost": 60
                },
                {
                    "id" : 4,
                    "isOpened": false,
                    "text": "у заводчика // приманить косточкой // пр. собачье",
                    "cost": 120
                },
                {
                    "id" : 5,
                    "isOpened": false,
                    "text": "угнать",
                    "cost": 180
                },
                {
                    "id" : 6,
                    "isOpened": false,
                    "text": "сама выберет хозяина",
                    "cost": 240
                }
            ]
        }
    ],
    "game2" : [       
        {
            "roundNumber" : 1,
            "question" : "Какое самое мощное оружие есть у Доктора?",
            "answers" : [
                {
                    "id" : 1,
                    "isOpened": false,
                    "text": "мозги",
                    "cost": 25
                },
                {
                    "id" : 2,
                    "isOpened": false,
                    "text": "язык // слова",
                    "cost": 20
                },
                {
                    "id" : 3,
                    "isOpened": false,
                    "text": "внешность",
                    "cost": 15
                },
                {
                    "id" : 4,
                    "isOpened": false,
                    "text": "харизма",
                    "cost": 12
                },
                {
                    "id" : 5,
                    "isOpened": false,
                    "text": "друзья // спутники",
                    "cost": 8
                },
                {
                    "id" : 6,
                    "isOpened": false,
                    "text": "банан // печенька // иной предмет",
                    "cost": 5
                }
            ]
        },
        {
            "roundNumber" : 2,
            "question" : "Что будет, если ТАРДИС припаркуется в саму себя?",
            "answers" : [
                {
                    "id" : 1,
                    "isOpened": false,
                    "text": "ТАРДИС в ТАРДИС",
                    "cost": 25
                },
                {
                    "id" : 2,
                    "isOpened": false,
                    "text": "ответ носит сексуальный характер",
                    "cost": 21
                },
                {
                    "id" : 3,
                    "isOpened": false,
                    "text": "временная петля",
                    "cost": 15
                },
                {
                    "id" : 4,
                    "isOpened": false,
                    "text": "авария // взрыв",
                    "cost": 8
                },
                {
                    "id" : 5,
                    "isOpened": false,
                    "text": "конец/начало серии/сезона",
                    "cost": 5
                },
                {
                    "id" : 6,
                    "isOpened": false,
                    "text": "встреча двух Докторов",
                    "cost": 3
                }
            ]
        },
        {
            "roundNumber" : 3,
            "question" : "С какой частотой необходимо менять спутниц?",
            "answers" : [
                {
                    "id" : 1,
                    "isOpened": false,
                    "text": "N раз за регенерацию // сезон // лет",
                    "cost": 29
                },
                {
                    "id" : 2,
                    "isOpened": false,
                    "text": "когда портится // износилась",
                    "cost": 21
                },
                {
                    "id" : 3,
                    "isOpened": false,
                    "text": "как перчатки // не как перчатки",
                    "cost": 15
                },
                {
                    "id" : 4,
                    "isOpened": false,
                    "text": "согласно инструкции // нормам",
                    "cost": 8
                },
                {
                    "id" : 5,
                    "isOpened": false,
                    "text": "если стала умнее // самостоятельной",
                    "cost": 5
                },
                {
                    "id" : 6,
                    "isOpened": false,
                    "text": "не чаще, чем костюмы",
                    "cost": 3
                }
            ]
        },
        {
            "roundNumber" : 4,
            "question" : "Зачем машине времени фонарь?",
            "answers" : [
                {
                    "id" : 1,
                    "isOpened": false,
                    "text": "темно (физически) // светить",
                    "cost": 15
                },
                {
                    "id" : 2,
                    "isOpened": false,
                    "text": "освещать прошлое / будущее",
                    "cost": 30
                },
                {
                    "id" : 3,
                    "isOpened": false,
                    "text": "путеводный огонёк // не потеряться",
                    "cost": 60
                },
                {
                    "id" : 4,
                    "isOpened": false,
                    "text": "для красоты",
                    "cost": 120
                },
                {
                    "id" : 5,
                    "isOpened": false,
                    "text": "подавать сигналы // привлекать внимание",
                    "cost": 180
                },
                {
                    "id" : 6,
                    "isOpened": false,
                    "text": "затем же, зачем и фонарю машина времени ",
                    "cost": 240
                }
            ]
        },
        {
            "roundNumber" : 5,
            "question" : "Зачем машине времени фонарь?",
            "answers" : [
                {
                    "id" : 1,
                    "isOpened": false,
                    "text": "темно (физически) // светить",
                    "cost": 15
                },
                {
                    "id" : 2,
                    "isOpened": false,
                    "text": "освещать прошлое / будущее",
                    "cost": 30
                },
                {
                    "id" : 3,
                    "isOpened": false,
                    "text": "путеводный огонёк // не потеряться",
                    "cost": 60
                },
                {
                    "id" : 4,
                    "isOpened": false,
                    "text": "для красоты",
                    "cost": 120
                },
                {
                    "id" : 5,
                    "isOpened": false,
                    "text": "подавать сигналы // привлекать внимание",
                    "cost": 180
                },
                {
                    "id" : 6,
                    "isOpened": false,
                    "text": "затем же, зачем и фонарю машина времени ",
                    "cost": 240
                }
            ]
        }
    ]
}